…
# use the wildTypeSamples to pull out the wildtype expression data from the expression matrix
wildTypeExpressionMatrix <- getExpressionForSamples(wildTypeSamples$sample_id, expressionMatrix)

wildTypeExpressionMatrix %>% as_tibble()
```

    ## # A tibble: 29,949 x 20
    ##    Sample_20 Sample_21 Sample_22 Sample_23 Sample_24 Sample_25 Sample_26
    ##        <dbl>     <dbl>     <dbl>     <dbl>     <dbl>     <dbl>     <dbl>
    ##  1      7.24      7.41      7.17      7.07      7.11      7.19      7.18
    ##  2      9.48     10.0       9.85     10.1       9.75      9.16      9.49
    ##  3     10.0      10.0       9.91      9.91      9.39     10.1       9.41
    ##  4      8.36      8.37      8.40      8.49      8.37      8.20      8.73
    ##  5      8.59      8.62      8.52      8.64      8.36      8.50      8.39
    ##  6      9.59      9.72      9.71      9.7       9.64      9.65      9.87
    ##  7      9.68     10.4       9.87     10.2       9.15      8.18      9.10
    ##  8      7.24      7.90      7.48      7.49      7.19      7.23      7.06
    ##  9     11.7      11.5      11.5      11.6      11.4      11.3      11.8 
    ## 10      9.21     10.1       9.82      9.92      9.30      9.94      8.77
    ## # … with 29,939 more rows, and 13 more variables: Sample_27 <dbl>,
    ## #   Sample_28 <dbl>, Sample_29 <dbl>, Sample_30 <dbl>, Sample_31 <dbl>,
    ## #   Sample_32 <dbl>, Sample_33 <dbl>, Sample_34 <dbl>, Sample_35 <dbl>,
    ## #   Sample_36 <dbl>, Sample_37 <dbl>, Sample_38 <dbl>, Sample_39 <dbl>
…
