…
``` r
(new_melted_data <- melted_data %>% 
    group_by(Sample, IDENTIFIER) %>% 
    summarize(Count = mean(value)))
```

    ## # A tibble: 279,905 x 3
    ## # Groups:   Sample [17]
    ##    Sample   IDENTIFIER   Count
    ##    <fct>    <chr>        <dbl>
    ##  1 GSM11815 --Control   8139. 
    ##  2 GSM11815 222968_at    102. 
    ##  3 GSM11815 223641_at    200. 
    ##  4 GSM11815 224429_x_at 2385. 
    ##  5 GSM11815 224438_at     32.1
    ##  6 GSM11815 225714_s_at  291. 
    ##  7 GSM11815 225934_at    284. 
    ##  8 GSM11815 226014_at     66.3
    ##  9 GSM11815 226061_s_at   45.1
    ## 10 GSM11815 226138_s_at   23.3
    ## # … with 279,895 more rows
…
``` r
sigdata <- withp %>% filter(pvalue < 0.05)
sigdata
```

    ## # A tibble: 2,468 x 2
    ##    hgnc_symbol   pvalue
    ##    <chr>          <dbl>
    ##  1 A1BG-AS1    0.0366  
    ##  2 A2MP1       0.0245  
    ##  3 AADAT       0.0304  
    ##  4 AAK1        0.0229  
    ##  5 AARS2       0.0416  
    ##  6 ABCB1       0.00351 
    ##  7 ABCB10      0.0302  
    ##  8 ABCC3       0.0342  
    ##  9 ABCC6P1     0.000528
    ## 10 ABCG1       0.00795 
    ## # … with 2,458 more rows
…
